\relax 
\providecommand\hyper@newdestlabel[2]{}
\providecommand\zref@newlabel[2]{}
\providecommand*\new@tpo@label[2]{}
\providecommand\HyperFirstAtBeginDocument{\AtBeginDocument}
\HyperFirstAtBeginDocument{\ifx\hyper@anchor\@undefined
\global\let\oldcontentsline\contentsline
\gdef\contentsline#1#2#3#4{\oldcontentsline{#1}{#2}{#3}}
\global\let\oldnewlabel\newlabel
\gdef\newlabel#1#2{\newlabelxx{#1}#2}
\gdef\newlabelxx#1#2#3#4#5#6{\oldnewlabel{#1}{{#2}{#3}}}
\AtEndDocument{\ifx\hyper@anchor\@undefined
\let\contentsline\oldcontentsline
\let\newlabel\oldnewlabel
\fi}
\fi}
\global\let\hyper@last\relax 
\gdef\HyperFirstAtBeginDocument#1{#1}
\providecommand\HyField@AuxAddToFields[1]{}
\providecommand\HyField@AuxAddToCoFields[2]{}
\providecommand\BKM@entry[2]{}
\BKM@entry{id=1,dest={636861707465722E31},srcline={73},srcfile={2E2F373339302D6E6F7465626F6F6B2D746573742E746578}}{37345448204D454554494E47}
\BKM@entry{id=2,dest={73656374696F6E2E312E31},srcline={1},srcfile={2E2F73656374696F6E732F412F37342E746578}}{48415244574152452D496E74616B65}
\providecommand \oddpage@label [2]{}
\newlabel{meeting:74}{{}{1}{}{Doc-Start}{}}
\newlabel{meeting:74@cref}{{}{[1][1][]1}}
\@writefile{toc}{\contentsline {chapter}{\numberline {1}74\relax TH MEETING}{1}{chapter.1}\protected@file@percent }
\@writefile{lof}{\addvspace {10\p@ }}
\@writefile{lot}{\addvspace {10\p@ }}
\newlabel{1:HARDWARE:Intake}{{1}{1}{\jnth {74} MEETING}{figure.caption.1}{}}
\newlabel{1:HARDWARE:Intake@cref}{{[chapter][1][]1}{[1][1][]1}}
\@writefile{toc}{\contentsline {section}{\numberline {1.1}HARDWARE-Intake}{1}{section.1.1}\protected@file@percent }
